…
## Completed

```
## # A tibble: 32 × 5
##    what                     when              with                                           where  why  
##    <chr>                    <chr>             <chr>                                          <chr>  <lis>
##  1 PI (Moore Institute)     " 2022"           CICLO ($2,000)                                 Long … <chr>
##  2 PI (Moore Institute)     " 2022"           IGES ($600)                                    Japan  <chr>
##  3 PI (UCR)                 " 2021 -->  2021" UC Riverside ($14,400)                         River… <chr>
##  4 Writing (UCR)            " 2019 -->  2021" National Marine Sanctuaries and NOAA ($6,000)  River… <chr>
##  5 CoPI (UCR)               " 2019 -->  2019" Renew Oceans ($6,000)                          Varan… <chr>
##  6 PI (Personal)            " 2019 -->  2019" UCR Office of Technology Partnerships ($1,000) River… <chr>
##  7 CoPI (UCR, Renew Oceans) " 2019 -->  2020" Benioff Ocean Institute ($1,000,000)           Varan… <chr>
##  8 PI (Personal)            " 2019"           5 Gyres ($1,000)                               Maryl… <chr>
##  9 PI (Personal)            " 2019"           5 Gyres ($3,000)                               Bermu… <chr>
## 10 PI (Personal)            " 2019"           UC Riverside ($1,400)                          River… <chr>
## # … with 22 more rows
```
…
```
## # A tibble: 2 × 5
##   what                        when              with         where                      why      
##   <chr>                       <chr>             <chr>        <chr>                      <list>   
## 1 Graduate Student Researcher " 2021"           UC Riverside Riverside, California, USA <chr [1]>
## 2 Graduate Student Researcher " 2017 -->  2021" UC Riverside Riverside, California, USA <chr [1]>
```

# Presentations
## Invited

```
## # A tibble: 21 × 5
##    what                                                     when    with                      where why  
##    <chr>                                                    <chr>   <chr>                     <chr> <lis>
##  1 Dr. Hollands Class                                       " 2022" CSU Long Beach            Long… <chr>
##  2 Pinole City Council Meeting                              " 2022" Pinole City Council       Pino… <chr>
##  3 Annual Meeting                                           " 2022" AWWA                      Anah… <chr>
##  4 Model United Nations                                     " 2022" UC Riverside              Rive… <chr>
##  5 Pinole City Council Meeting                              " 2021" Pinole City Council       Pino… <chr>
##  6 Shelly Moore’s Class                                     " 2021" Santa Ana College         Sant… <chr>
##  7 Maximizing the Value of Environmental Microplastics Data " 2021" University of Waterloo    200 … <chr>
##  8 SFEI Clean Water Group                                   " 2021" San Francisco Estuary In… Rich… <chr>
##  9 Pacific Northwest Microplastic Workgroup Meeting         " 2021" Pacific Northwest Microp… <NA>  <chr>
## 10 Trash Webinar Series                                     " 2021" California EPA            Cali… <chr>
## # … with 11 more rows
```
…
